[gd_scene load_steps=6 format=3 uid="uid://b3uvlwvmpxpmd"]

[ext_resource type="Script" path="res://Actions/boss_attack.gd" id="1_3wcrh"]
[ext_resource type="PackedScene" uid="uid://dsqvfvg58w46k" path="res://Actions/Hitbox.tscn" id="2_aeghq"]
[ext_resource type="Texture2D" uid="uid://dicxwyxw47m7p" path="res://Assets/Art/ennemy_ball.png" id="2_m22pf"]

[sub_resource type="RectangleShape2D" id="RectangleShape2D_f7563"]
size = Vector2(38, 38)

[sub_resource type="RectangleShape2D" id="RectangleShape2D_v0idx"]
size = Vector2(31.4297, 29.7592)

[node name="BossAttack" type="Area2D"]
scale = Vector2(3.77337, 3.60149)
script = ExtResource("1_3wcrh")

[node name="Sprite2D" type="Sprite2D" parent="."]
texture_filter = 1
position = Vector2(1.90735e-06, 0)
scale = Vector2(0.676404, 0.662994)
texture = ExtResource("2_m22pf")

[node name="CollisionShape2D" type="CollisionShape2D" parent="."]
scale = Vector2(0.5, 0.5)
shape = SubResource("RectangleShape2D_f7563")

[node name="VisibleOnScreenNotifier2D" type="VisibleOnScreenNotifier2D" parent="."]
position = Vector2(0, 1.19209e-07)
scale = Vector2(0.95, 0.95)

[node name="Hitbox" parent="." instance=ExtResource("2_aeghq")]
collision_layer = 8
collision_mask = 2

[node name="CollisionShape2D" parent="Hitbox" index="0"]
scale = Vector2(0.604523, 0.638457)
shape = SubResource("RectangleShape2D_v0idx")
debug_color = Color(0.878431, 0.266667, 0.54902, 0.419608)

[editable path="Hitbox"]
